{
  "type": "mysql",
  "host": "192.168.10.10",
  "port": 3306,
  "username": "homestead",
  "password": "secret",
  "database": "testcases",
  "entities": ["src/**/**.entity{.ts,.js}"],
  "synchronize": true
}